module main

go 1.20

require dagger.io/dagger v0.8.4

require (
	github.com/99designs/gqlgen v0.17.31 // indirect
	github.com/Khan/genqlient v0.6.0 // indirect
	github.com/adrg/xdg v0.4.0 // indirect
	github.com/iancoleman/strcase v0.3.0 // indirect
	github.com/mitchellh/go-homedir v1.1.0 // indirect
	github.com/vektah/gqlparser/v2 v2.5.6 // indirect
	golang.org/x/sync v0.3.0 // indirect
	golang.org/x/sys v0.10.0 // indirect
)
